Dummy challenge NAO Soccer 2021

Definition of the Teams

Team 1 
Name : ...
Members : Hugo GACE, Simon GERVAISE, Thibault LANGLARD, Antoine WANCTIN

Team 2 
Name : ... 
Members : ..., ..., ... 

Team 3 
Name :  ... 
Members : ..., ..., ... 

Team 4 
Name :  ... 
Members : ..., ..., ... 

Team 5 
Name :  ... 
Members : ..., ..., ... 

Team 6 
Name :  ... 
Members : ..., ..., ... 
